member eh0721 Earnest Hemingway 
edge 1 4 
postingobject 2 1 eh0721 Message1 1313616219940
targetobject 1 3 eh0721 http://www.cs200classmatebook.org/~eh0721 1313616219935
edge 2 4  
postingobject 3 1 eh0721 Message2 1313616230000
targetobject 1 3 eh0721 http://www.cs200classmatebook.org/~eh0721 1313616219935
edge 3 4  
postingobject 4 1 eh0721 Message3 1313616240000
targetobject 1 3 eh0721 http://www.cs200classmatebook.org/~eh0721 1313616219935
edge 4 3 
postingobject 5 2 eh0721 Comment1 1313616250000
targetobject 2 1 eh0721 Message1 1313616219940
edge 5 4 
postingobject 6 1 eh0721 Message4 1313616260000
targetobject 1 3 eh0721 http://www.cs200classmatebook.org/~eh0721 1313616219935
edge 6 4 
postingobject 7 1 eh0721 Message5 1313616270000
targetobject 1 3 eh0721 http://www.cs200classmatebook.org/~eh0721 1313616219935
edge 7 4 
postingobject 8 1 eh0721 Message6 1313616280000
targetobject 1 3 eh0721 http://www.cs200classmatebook.org/~eh0721 1313616219935
edge 8 3 
postingobject 9 2 eh0721 Comment2 1313616290000
targetobject 8 3 eh0721 Message6 1313616280000
edge 9 3 
postingobject 10 1 eh0721 Comment3 1313616300000
targetobject 9 2 Comment2 eh0721 1313616290000
edge 10 4 
postingobject 11 1 eh0721 Message7 1313616310000
targetobject 1 3 eh0721 http://www.cs200classmatebook.org/~eh0721 1313616219935
