3000 ; start program at location x3000
2206 ; load location 3007 into R1
2406 ; load location 3008 into R2
56E0 ; AND R3,R3,0
16C1 ; ADD R3,R3,R1
16C2 ; ADD R3,R3,R2
3603 ; store R3 into location 3009
F025 ; halt
1111 ; location 3007 = 0x1111 (constant)
0006 ; location 3008 = 0x0006 (constant)
0000 ; location 3009 = result (variable)
