// Symbol table
// Scope level 0:
//	Symbol Name       Page Address
//	----------------  ------------
//	DATA_BEGIN        3001
//	OPTION            3002
//	STACKBASE         3003
//	EXPONENTMASK      3004
//	SIGNIFICANDMASK   3005
//	NORMALIZRMASK     3006
//	FLOAT_X           3007
//	FLOAT_Y           3008
//	FLOAT_SUM         3009
//	DATA_END          300A
//	MAIN              300B
//	CASE234           3013
//	CASE34            3017
//	DONE              3018
//	MY_MAIN           301A
//	SUB_RightShift    3027
//	RightShift_LS_LOOP  3033
//	RightShift_RS_LOOP  303A
//	RightShift_DONE   3040
//	RightShift_ZERO   3042
//	RightShift_RETURN  3044
//	SUB_AbsDiff       304A
//	AbsDiff_DONE      3058
//	AbsDiff_RETURN    3059
//	SUB_LessThan      305F
//	LessThan_DONE     306F
//	LessThan_RETURN   3071
